\beamer@endinputifotherversion {3.36pt}
\headcommand {\sectionentry {1}{Introduction}{1}{Introduction}{0}}
\headcommand {\beamer@sectionpages {1}{0}}
\headcommand {\beamer@subsectionpages {1}{0}}
\headcommand {\slideentry {1}{0}{1}{1/1}{}{0}}
\headcommand {\beamer@framepages {1}{1}}
\headcommand {\slideentry {1}{0}{2}{3/3}{}{0}}
\headcommand {\beamer@framepages {3}{3}}
\headcommand {\slideentry {1}{0}{3}{4/4}{}{0}}
\headcommand {\beamer@framepages {4}{4}}
\headcommand {\sectionentry {2}{Related Works}{5}{Related Works}{0}}
\headcommand {\beamer@sectionpages {1}{4}}
\headcommand {\beamer@subsectionpages {1}{4}}
\headcommand {\slideentry {2}{0}{1}{5/5}{}{0}}
\headcommand {\beamer@framepages {5}{5}}
\headcommand {\slideentry {2}{0}{2}{6/6}{}{0}}
\headcommand {\beamer@framepages {6}{6}}
\headcommand {\slideentry {2}{0}{3}{7/7}{}{0}}
\headcommand {\beamer@framepages {7}{7}}
\headcommand {\sectionentry {3}{Method of Approach}{8}{Method of Approach}{0}}
\headcommand {\beamer@sectionpages {5}{7}}
\headcommand {\beamer@subsectionpages {5}{7}}
\headcommand {\slideentry {3}{0}{1}{8/8}{}{0}}
\headcommand {\beamer@framepages {8}{8}}
\headcommand {\sectionentry {4}{Evaluation Strategy}{9}{Evaluation Strategy}{0}}
\headcommand {\beamer@sectionpages {8}{8}}
\headcommand {\beamer@subsectionpages {8}{8}}
\headcommand {\slideentry {4}{0}{1}{9/9}{}{0}}
\headcommand {\beamer@framepages {9}{9}}
\headcommand {\slideentry {4}{0}{2}{10/10}{}{0}}
\headcommand {\beamer@framepages {10}{10}}
\headcommand {\slideentry {4}{0}{3}{11/11}{}{0}}
\headcommand {\beamer@framepages {11}{11}}
\headcommand {\slideentry {4}{0}{4}{12/12}{}{0}}
\headcommand {\beamer@framepages {12}{12}}
\headcommand {\sectionentry {5}{Preliminary Study}{13}{Preliminary Study}{0}}
\headcommand {\beamer@sectionpages {9}{12}}
\headcommand {\beamer@subsectionpages {9}{12}}
\headcommand {\slideentry {5}{0}{1}{13/13}{}{0}}
\headcommand {\beamer@framepages {13}{13}}
\headcommand {\slideentry {5}{0}{2}{14/14}{}{0}}
\headcommand {\beamer@framepages {14}{14}}
\headcommand {\slideentry {5}{0}{3}{15/15}{}{0}}
\headcommand {\beamer@framepages {15}{15}}
\headcommand {\slideentry {5}{0}{4}{16/16}{}{0}}
\headcommand {\beamer@framepages {16}{16}}
\headcommand {\slideentry {5}{0}{5}{17/17}{}{0}}
\headcommand {\beamer@framepages {17}{17}}
\headcommand {\sectionentry {6}{Research Schedule}{18}{Research Schedule}{0}}
\headcommand {\beamer@sectionpages {13}{17}}
\headcommand {\beamer@subsectionpages {13}{17}}
\headcommand {\slideentry {6}{0}{1}{18/18}{}{0}}
\headcommand {\beamer@framepages {18}{18}}
\headcommand {\sectionentry {7}{Conclusion}{19}{Conclusion}{0}}
\headcommand {\beamer@sectionpages {18}{18}}
\headcommand {\beamer@subsectionpages {18}{18}}
\headcommand {\slideentry {7}{0}{1}{19/19}{}{0}}
\headcommand {\beamer@framepages {19}{19}}
\headcommand {\slideentry {7}{0}{2}{20/20}{}{0}}
\headcommand {\beamer@framepages {20}{20}}
\headcommand {\beamer@partpages {1}{20}}
\headcommand {\beamer@subsectionpages {19}{20}}
\headcommand {\beamer@sectionpages {19}{20}}
\headcommand {\beamer@documentpages {20}}
\headcommand {\def \inserttotalframenumber {19}}
