\BOOKMARK [2][]{Outline0.1}{Introduction}{}% 1
\BOOKMARK [2][]{Outline0.2}{Related Works}{}% 2
\BOOKMARK [2][]{Outline0.3}{Method of Approach}{}% 3
\BOOKMARK [2][]{Outline0.4}{Evaluation Strategy}{}% 4
\BOOKMARK [2][]{Outline0.5}{Preliminary Study}{}% 5
\BOOKMARK [2][]{Outline0.6}{Research Schedule}{}% 6
\BOOKMARK [2][]{Outline0.7}{Conclusion}{}% 7
